\select@language {spanish}
\contentsline {section}{\numberline {1}Renombres}{3}
\contentsline {section}{\numberline {2}TAD \textsc {Restriccion}}{3}
\contentsline {section}{\numberline {3}TAD \textsc {Ciudad futurista}}{4}
\contentsline {section}{\numberline {4}TAD \textsc {Sistema}}{5}
